{
    "links": {
        "next": "https://vsim-dev.api.edp.aws.quartz.bio/v2/vaults?limit=2&page=3",
        "prev": "https://vsim-dev.api.edp.aws.quartz.bio/v2/vaults?limit=2&page=1"
    },
    "total": 10,
    "class_name": "list",
    "url": "https://vsim-dev.api.edp.aws.quartz.bio/v2/vaults?limit=2&page=2",
    "data": [
        {
            "account_domain": "quartzbio",
            "account_id": 1,
            "class_name": "Vault",
            "created_at": "2022-11-02T23:38:43.735Z",
            "default_storage_class": null,
            "description": null,
            "full_path": "quartzbio:Public",
            "has_children": true,
            "has_folder_children": true,
            "id": 19,
            "is_deleted": false,
            "is_public": true,
            "last_synced": null,
            "metadata": {

            },
            "name": "Public",
            "permissions": {
                "read": true,
                "write": false,
                "admin": false
            },
            "provider": "SolveBio",
            "require_unique_paths": true,
            "tags": [

            ],
            "updated_at": "2022-11-02T23:38:43.738Z",
            "url": "https://vsim-dev.api.edp.aws.quartz.bio/v2/vaults/19",
            "user": {
                "class_name": "User",
                "email": "tatjana.damnjanovic1@fakemail.com",
                "first_name": "Admin",
                "full_name": "Admin Dev user",
                "id": 1,
                "is_active": true,
                "is_staff": true,
                "role": "admin",
                "title": ""
            },
            "user_id": 1,
            "vault_properties": [

            ],
            "vault_type": "general"
        },
        {
            "account_domain": "vsim-dev",
            "account_id": 3,
            "class_name": "Vault",
            "created_at": "2023-02-15T20:07:31.859Z",
            "default_storage_class": null,
            "description": "",
            "full_path": "vsim-dev:Public Data Dev",
            "has_children": true,
            "has_folder_children": true,
            "id": 1300,
            "is_deleted": false,
            "is_public": false,
            "last_synced": null,
            "metadata": {
                "links": [
                    {
                        "url": "https://google.com",
                        "title": "Test"
                    }
                ]
            },
            "name": "Public Data Dev",
            "permissions": {
                "read": true,
                "write": true,
                "admin": false
            },
            "provider": "SolveBio",
            "require_unique_paths": true,
            "tags": [

            ],
            "updated_at": "2023-02-17T05:40:07.508Z",
            "url": "https://vsim-dev.api.edp.aws.quartz.bio/v2/vaults/1300",
            "user": {
                "class_name": "User",
                "email": "david.caplan@fakemail.com",
                "first_name": "David",
                "full_name": "David Caplan",
                "id": 11,
                "is_active": true,
                "is_staff": false,
                "role": "admin",
                "title": ""
            },
            "user_id": 11,
            "vault_properties": [

            ],
            "vault_type": "general"
        }
    ]
}
