{
    "links": {
        "next": "https://vsim-dev.api.edp.aws.quartz.bio/v2/datasets/2021154175053945409/fields?dataset_id=2021154175053945409&limit=2&page=3",
        "prev": "https://vsim-dev.api.edp.aws.quartz.bio/v2/datasets/2021154175053945409/fields?dataset_id=2021154175053945409&limit=2&page=1"
    },
    "total": 6,
    "class_name": "list",
    "url": "https://vsim-dev.api.edp.aws.quartz.bio/v2/datasets/2021154175053945409/fields?dataset_id=2021154175053945409&limit=2&page=2",
    "data": [
        {
            "class_name": "DatasetField",
            "created_at": "2023-04-13T14:42:37.187Z",
            "depends_on": {

            },
            "data_type": "string",
            "dataset_id": "2021154175053945409",
            "description": "An ID representing a set of records modified by a dataset import or migration.",
            "entity_type": null,
            "expression": null,
            "facets_url": "https://vsim-dev.api.edp.aws.quartz.bio/v2/dataset_fields/11804/facets",
            "id": 11804,
            "is_hidden": false,
            "is_list": null,
            "is_read_only": true,
            "is_valid": false,
            "name": "_commit",
            "ordering": null,
            "title": "_commit",
            "updated_at": "2023-04-13T14:42:37.187Z",
            "url": "https://vsim-dev.api.edp.aws.quartz.bio/v2/dataset_fields/11804",
            "url_template": null,
            "vault_id": 1921
        },
        {
            "class_name": "DatasetField",
            "created_at": "2023-04-13T14:42:33.998Z",
            "depends_on": [

            ],
            "data_type": "string",
            "dataset_id": "2021154175053945409",
            "description": "",
            "entity_type": "gene",
            "expression": null,
            "facets_url": "https://vsim-dev.api.edp.aws.quartz.bio/v2/dataset_fields/11800/facets",
            "id": 11800,
            "is_hidden": false,
            "is_list": null,
            "is_read_only": false,
            "is_valid": true,
            "name": "name2",
            "ordering": null,
            "title": "name2",
            "updated_at": "2023-04-13T14:42:37.121Z",
            "url": "https://vsim-dev.api.edp.aws.quartz.bio/v2/dataset_fields/11800",
            "url_template": null,
            "vault_id": 1921
        }
    ]
}
