{
    "links": {
        "next": "https://vsim-dev.api.edp.aws.quartz.bio/v2/tasks?task_type=datasets.DatasetCommit&page=2",
        "prev": null
    },
    "total": 24,
    "class_name": "list",
    "url": "https://vsim-dev.api.edp.aws.quartz.bio/v2/tasks?task_type=datasets.DatasetCommit",
    "data": [
        {
            "available_actions": [

            ],
            "schedule_info": null,
            "class_name": "ECSTask",
            "created_at": "2023-08-31T19:21:18.943Z",
            "description": "Upsert 119 records",
            "id": "2122763082459753822",
            "parent_id": "2122763079123037267",
            "priority": 30,
            "require_idle_source": false,
            "require_idle_target": false,
            "source_object": null,
            "source_vault": null,
            "status": "completed",
            "target_object": {
                "id": "2122758885593473363",
                "vault_id": 2236,
                "dataset_id": "2122758885593473363",
                "dataset_full_name": "2122758885593473363",
                "dataset_documents_count": 679,
                "documents_count": 679,
                "dataset_description": "Test_rclient Variants",
                "full_path": "vsim-dev:Test_rclient:/Variants-01/variants 2023-08-31 21:12:53",
                "parent_object_id": "2055176312542404726",
                "object_type": "dataset",
                "path": "/Variants-01/variants 2023-08-31 21:12:53",
                "filename": "variants 2023-08-31 21:12:53",
                "is_deleted": false,
                "created_at": "2023-08-31T19:12:58.632Z",
                "updated_at": "2023-08-31T19:21:33.258Z",
                "last_accessed": "2023-08-31T19:40:02Z",
                "last_modified": "2023-08-31T19:21:33.551Z",
                "url": null,
                "vault_name": "Test_rclient"
            },
            "target_vault": {
                "id": 2236,
                "name": "Test_rclient",
                "provider": "SolveBio",
                "vault_type": "general",
                "full_path": "vsim-dev:Test_rclient",
                "is_deleted": false,
                "is_public": false,
                "created_at": "2023-05-18T23:36:53.859Z",
                "updated_at": "2023-05-18T23:37:24.048Z",
                "permissions": {
                    "read": true,
                    "write": true,
                    "admin": false
                },
                "url": "https://vsim-dev.api.edp.aws.quartz.bio/v2/vaults/2236"
            },
            "task_display_name": "Dataset Commit",
            "task_id": "2122763080529544898",
            "task_type": "datasets.DatasetCommit",
            "updated_at": "2023-08-31T19:21:33.588Z",
            "user": {
                "class_name": "User",
                "email": "Test.User@fakemail.com",
                "first_name": "Test",
                "full_name": "Test User",
                "id": 94,
                "is_active": true,
                "is_staff": false,
                "role": "member",
                "title": ""
            }
        },
        {
            "available_actions": [

            ],
            "schedule_info": null,
            "class_name": "ECSTask",
            "created_at": "2023-08-31T19:18:12.539Z",
            "description": "Add 679 records",
            "id": "2122761518781344425",
            "parent_id": "2122758898678812708",
            "priority": 30,
            "require_idle_source": false,
            "require_idle_target": false,
            "source_object": null,
            "source_vault": null,
            "status": "completed",
            "target_object": {
                "id": "2122758885593473363",
                "vault_id": 2236,
                "dataset_id": "2122758885593473363",
                "dataset_full_name": "2122758885593473363",
                "dataset_documents_count": 679,
                "documents_count": 679,
                "dataset_description": "Test_rclient Variants",
                "full_path": "vsim-dev:Test_rclient:/Variants-01/variants 2023-08-31 21:12:53",
                "parent_object_id": "2055176312542404726",
                "object_type": "dataset",
                "path": "/Variants-01/variants 2023-08-31 21:12:53",
                "filename": "variants 2023-08-31 21:12:53",
                "is_deleted": false,
                "created_at": "2023-08-31T19:12:58.632Z",
                "updated_at": "2023-08-31T19:21:33.258Z",
                "last_accessed": "2023-08-31T19:40:02Z",
                "last_modified": "2023-08-31T19:21:33.551Z",
                "url": null,
                "vault_name": "Test_rclient"
            },
            "target_vault": {
                "id": 2236,
                "name": "Test_rclient",
                "provider": "SolveBio",
                "vault_type": "general",
                "full_path": "vsim-dev:Test_rclient",
                "is_deleted": false,
                "is_public": false,
                "created_at": "2023-05-18T23:36:53.859Z",
                "updated_at": "2023-05-18T23:37:24.048Z",
                "permissions": {
                    "read": true,
                    "write": true,
                    "admin": false
                },
                "url": "https://vsim-dev.api.edp.aws.quartz.bio/v2/vaults/2236"
            },
            "task_display_name": "Dataset Commit",
            "task_id": "2122761514625870459",
            "task_type": "datasets.DatasetCommit",
            "updated_at": "2023-08-31T19:19:38.510Z",
            "user": {
                "class_name": "User",
                "email": "Test.User@fakemail.com",
                "first_name": "Test",
                "full_name": "Test User",
                "id": 94,
                "is_active": true,
                "is_staff": false,
                "role": "member",
                "title": ""
            }
        },
        {
            "available_actions": [

            ],
            "schedule_info": null,
            "class_name": "ECSTask",
            "created_at": "2023-08-30T11:08:20.816Z",
            "description": "Upsert 32 records",
            "id": "2121790187405248439",
            "parent_id": "2121790185142435971",
            "priority": 30,
            "require_idle_source": false,
            "require_idle_target": false,
            "source_object": null,
            "source_vault": null,
            "status": "completed",
            "target_object": {
                "id": "2121788476868807930",
                "vault_id": 2236,
                "dataset_id": "2121788476868807930",
                "dataset_full_name": "2121788476868807930",
                "dataset_documents_count": 55,
                "documents_count": 55,
                "dataset_description": "Test_rclient Variants",
                "full_path": "vsim-dev:Test_rclient:/Variants-02/variants 2023-08-30 13:04:53",
                "parent_object_id": "2055176353457018424",
                "object_type": "dataset",
                "path": "/Variants-02/variants 2023-08-30 13:04:53",
                "filename": "variants 2023-08-30 13:04:53",
                "is_deleted": false,
                "created_at": "2023-08-30T11:04:56.898Z",
                "updated_at": "2023-08-30T11:08:34.879Z",
                "last_accessed": "2023-08-30T11:32:44Z",
                "last_modified": "2023-08-30T11:08:35.454Z",
                "url": null,
                "vault_name": "Test_rclient"
            },
            "target_vault": {
                "id": 2236,
                "name": "Test_rclient",
                "provider": "SolveBio",
                "vault_type": "general",
                "full_path": "vsim-dev:Test_rclient",
                "is_deleted": false,
                "is_public": false,
                "created_at": "2023-05-18T23:36:53.859Z",
                "updated_at": "2023-05-18T23:37:24.048Z",
                "permissions": {
                    "read": true,
                    "write": true,
                    "admin": false
                },
                "url": "https://vsim-dev.api.edp.aws.quartz.bio/v2/vaults/2236"
            },
            "task_display_name": "Dataset Commit",
            "task_id": "2121790186001158892",
            "task_type": "datasets.DatasetCommit",
            "updated_at": "2023-08-30T11:08:35.487Z",
            "user": {
                "class_name": "User",
                "email": "Test.User@fakemail.com",
                "first_name": "Test",
                "full_name": "Test User",
                "id": 94,
                "is_active": true,
                "is_staff": false,
                "role": "member",
                "title": ""
            }
        },
        {
            "available_actions": [

            ],
            "schedule_info": null,
            "class_name": "ECSTask",
            "created_at": "2023-08-30T11:06:46.453Z",
            "description": "Add 55 records",
            "id": "2121789395843369759",
            "parent_id": "2121788488777126692",
            "priority": 30,
            "require_idle_source": false,
            "require_idle_target": false,
            "source_object": null,
            "source_vault": null,
            "status": "completed",
            "target_object": {
                "id": "2121788476868807930",
                "vault_id": 2236,
                "dataset_id": "2121788476868807930",
                "dataset_full_name": "2121788476868807930",
                "dataset_documents_count": 55,
                "documents_count": 55,
                "dataset_description": "Test_rclient Variants",
                "full_path": "vsim-dev:Test_rclient:/Variants-02/variants 2023-08-30 13:04:53",
                "parent_object_id": "2055176353457018424",
                "object_type": "dataset",
                "path": "/Variants-02/variants 2023-08-30 13:04:53",
                "filename": "variants 2023-08-30 13:04:53",
                "is_deleted": false,
                "created_at": "2023-08-30T11:04:56.898Z",
                "updated_at": "2023-08-30T11:08:34.879Z",
                "last_accessed": "2023-08-30T11:32:44Z",
                "last_modified": "2023-08-30T11:08:35.454Z",
                "url": null,
                "vault_name": "Test_rclient"
            },
            "target_vault": {
                "id": 2236,
                "name": "Test_rclient",
                "provider": "SolveBio",
                "vault_type": "general",
                "full_path": "vsim-dev:Test_rclient",
                "is_deleted": false,
                "is_public": false,
                "created_at": "2023-05-18T23:36:53.859Z",
                "updated_at": "2023-05-18T23:37:24.048Z",
                "permissions": {
                    "read": true,
                    "write": true,
                    "admin": false
                },
                "url": "https://vsim-dev.api.edp.aws.quartz.bio/v2/vaults/2236"
            },
            "task_display_name": "Dataset Commit",
            "task_id": "2121789392414338383",
            "task_type": "datasets.DatasetCommit",
            "updated_at": "2023-08-30T11:07:50.829Z",
            "user": {
                "class_name": "User",
                "email": "Test.User@fakemail.com",
                "first_name": "Test",
                "full_name": "Test User",
                "id": 94,
                "is_active": true,
                "is_staff": false,
                "role": "member",
                "title": ""
            }
        },
        {
            "available_actions": [

            ],
            "schedule_info": null,
            "class_name": "ECSTask",
            "created_at": "2023-08-14T16:10:31.803Z",
            "description": "Upsert 3 records",
            "id": "2110345869451306012",
            "parent_id": "2110345866959089155",
            "priority": 30,
            "require_idle_source": false,
            "require_idle_target": false,
            "source_object": null,
            "source_vault": null,
            "status": "completed",
            "target_object": {
                "id": "2110344732306227347",
                "vault_id": 2236,
                "dataset_id": "2110344732306227347",
                "dataset_full_name": "2110344732306227347",
                "dataset_documents_count": 18,
                "documents_count": 18,
                "dataset_description": "Test_rclient Variants",
                "full_path": "vsim-dev:Test_rclient:/Variants_set2-01/variants 2023-08-14 18:08:01",
                "parent_object_id": "2055856869311843627",
                "object_type": "dataset",
                "path": "/Variants_set2-01/variants 2023-08-14 18:08:01",
                "filename": "variants 2023-08-14 18:08:01",
                "is_deleted": false,
                "created_at": "2023-08-14T16:08:16.231Z",
                "updated_at": "2023-08-14T16:10:45.791Z",
                "last_accessed": "2023-08-14T16:49:34Z",
                "last_modified": "2023-08-14T16:10:46.081Z",
                "url": null,
                "vault_name": "Test_rclient"
            },
            "target_vault": {
                "id": 2236,
                "name": "Test_rclient",
                "provider": "SolveBio",
                "vault_type": "general",
                "full_path": "vsim-dev:Test_rclient",
                "is_deleted": false,
                "is_public": false,
                "created_at": "2023-05-18T23:36:53.859Z",
                "updated_at": "2023-05-18T23:37:24.048Z",
                "permissions": {
                    "read": true,
                    "write": true,
                    "admin": false
                },
                "url": "https://vsim-dev.api.edp.aws.quartz.bio/v2/vaults/2236"
            },
            "task_display_name": "Dataset Commit",
            "task_id": "2110345867955842752",
            "task_type": "datasets.DatasetCommit",
            "updated_at": "2023-08-14T16:10:46.107Z",
            "user": {
                "class_name": "User",
                "email": "Test.User@fakemail.com",
                "first_name": "Test",
                "full_name": "Test User",
                "id": 94,
                "is_active": true,
                "is_staff": false,
                "role": "member",
                "title": ""
            }
        },
        {
            "available_actions": [

            ],
            "schedule_info": null,
            "class_name": "ECSTask",
            "created_at": "2023-08-14T16:09:22.042Z",
            "description": "Add 18 records",
            "id": "2110345284250814157",
            "parent_id": "2110344744364046183",
            "priority": 30,
            "require_idle_source": false,
            "require_idle_target": false,
            "source_object": null,
            "source_vault": null,
            "status": "completed",
            "target_object": {
                "id": "2110344732306227347",
                "vault_id": 2236,
                "dataset_id": "2110344732306227347",
                "dataset_full_name": "2110344732306227347",
                "dataset_documents_count": 18,
                "documents_count": 18,
                "dataset_description": "Test_rclient Variants",
                "full_path": "vsim-dev:Test_rclient:/Variants_set2-01/variants 2023-08-14 18:08:01",
                "parent_object_id": "2055856869311843627",
                "object_type": "dataset",
                "path": "/Variants_set2-01/variants 2023-08-14 18:08:01",
                "filename": "variants 2023-08-14 18:08:01",
                "is_deleted": false,
                "created_at": "2023-08-14T16:08:16.231Z",
                "updated_at": "2023-08-14T16:10:45.791Z",
                "last_accessed": "2023-08-14T16:49:34Z",
                "last_modified": "2023-08-14T16:10:46.081Z",
                "url": null,
                "vault_name": "Test_rclient"
            },
            "target_vault": {
                "id": 2236,
                "name": "Test_rclient",
                "provider": "SolveBio",
                "vault_type": "general",
                "full_path": "vsim-dev:Test_rclient",
                "is_deleted": false,
                "is_public": false,
                "created_at": "2023-05-18T23:36:53.859Z",
                "updated_at": "2023-05-18T23:37:24.048Z",
                "permissions": {
                    "read": true,
                    "write": true,
                    "admin": false
                },
                "url": "https://vsim-dev.api.edp.aws.quartz.bio/v2/vaults/2236"
            },
            "task_display_name": "Dataset Commit",
            "task_id": "2110345280467796398",
            "task_type": "datasets.DatasetCommit",
            "updated_at": "2023-08-14T16:10:24.633Z",
            "user": {
                "class_name": "User",
                "email": "Test.User@fakemail.com",
                "first_name": "Test",
                "full_name": "Test User",
                "id": 94,
                "is_active": true,
                "is_staff": false,
                "role": "member",
                "title": ""
            }
        },
        {
            "available_actions": [

            ],
            "schedule_info": null,
            "class_name": "ECSTask",
            "created_at": "2023-08-09T12:44:31.543Z",
            "description": "Upsert 52 records",
            "id": "2106618305417653175",
            "parent_id": "2106618302530329225",
            "priority": 30,
            "require_idle_source": false,
            "require_idle_target": false,
            "source_object": null,
            "source_vault": null,
            "status": "completed",
            "target_object": {
                "id": "2106616131101413510",
                "vault_id": 2236,
                "dataset_id": "2106616131101413510",
                "dataset_full_name": "2106616131101413510",
                "dataset_documents_count": 169,
                "documents_count": 169,
                "dataset_description": "Test_rclient Variants",
                "full_path": "vsim-dev:Test_rclient:/Variants_set2-01/variants 2023-08-09 14:40:04",
                "parent_object_id": "2055856869311843627",
                "object_type": "dataset",
                "path": "/Variants_set2-01/variants 2023-08-09 14:40:04",
                "filename": "variants 2023-08-09 14:40:04",
                "is_deleted": false,
                "created_at": "2023-08-09T12:40:12.328Z",
                "updated_at": "2023-08-09T12:44:45.592Z",
                "last_accessed": "2023-08-09T13:06:44Z",
                "last_modified": "2023-08-09T12:44:45.867Z",
                "url": null,
                "vault_name": "Test_rclient"
            },
            "target_vault": {
                "id": 2236,
                "name": "Test_rclient",
                "provider": "SolveBio",
                "vault_type": "general",
                "full_path": "vsim-dev:Test_rclient",
                "is_deleted": false,
                "is_public": false,
                "created_at": "2023-05-18T23:36:53.859Z",
                "updated_at": "2023-05-18T23:37:24.048Z",
                "permissions": {
                    "read": true,
                    "write": true,
                    "admin": false
                },
                "url": "https://vsim-dev.api.edp.aws.quartz.bio/v2/vaults/2236"
            },
            "task_display_name": "Dataset Commit",
            "task_id": "2106618303564201021",
            "task_type": "datasets.DatasetCommit",
            "updated_at": "2023-08-09T12:44:45.894Z",
            "user": {
                "class_name": "User",
                "email": "Test.User@fakemail.com",
                "first_name": "Test",
                "full_name": "Test User",
                "id": 94,
                "is_active": true,
                "is_staff": false,
                "role": "member",
                "title": ""
            }
        },
        {
            "available_actions": [

            ],
            "schedule_info": null,
            "class_name": "ECSTask",
            "created_at": "2023-08-09T12:42:41.385Z",
            "description": "Add 169 records",
            "id": "2106617381345393012",
            "parent_id": "2106616144334784713",
            "priority": 30,
            "require_idle_source": false,
            "require_idle_target": false,
            "source_object": null,
            "source_vault": null,
            "status": "completed",
            "target_object": {
                "id": "2106616131101413510",
                "vault_id": 2236,
                "dataset_id": "2106616131101413510",
                "dataset_full_name": "2106616131101413510",
                "dataset_documents_count": 169,
                "documents_count": 169,
                "dataset_description": "Test_rclient Variants",
                "full_path": "vsim-dev:Test_rclient:/Variants_set2-01/variants 2023-08-09 14:40:04",
                "parent_object_id": "2055856869311843627",
                "object_type": "dataset",
                "path": "/Variants_set2-01/variants 2023-08-09 14:40:04",
                "filename": "variants 2023-08-09 14:40:04",
                "is_deleted": false,
                "created_at": "2023-08-09T12:40:12.328Z",
                "updated_at": "2023-08-09T12:44:45.592Z",
                "last_accessed": "2023-08-09T13:06:44Z",
                "last_modified": "2023-08-09T12:44:45.867Z",
                "url": null,
                "vault_name": "Test_rclient"
            },
            "target_vault": {
                "id": 2236,
                "name": "Test_rclient",
                "provider": "SolveBio",
                "vault_type": "general",
                "full_path": "vsim-dev:Test_rclient",
                "is_deleted": false,
                "is_public": false,
                "created_at": "2023-05-18T23:36:53.859Z",
                "updated_at": "2023-05-18T23:37:24.048Z",
                "permissions": {
                    "read": true,
                    "write": true,
                    "admin": false
                },
                "url": "https://vsim-dev.api.edp.aws.quartz.bio/v2/vaults/2236"
            },
            "task_display_name": "Dataset Commit",
            "task_id": "2106617377271711560",
            "task_type": "datasets.DatasetCommit",
            "updated_at": "2023-08-09T12:43:44.548Z",
            "user": {
                "class_name": "User",
                "email": "Test.User@fakemail.com",
                "first_name": "Test",
                "full_name": "Test User",
                "id": 94,
                "is_active": true,
                "is_staff": false,
                "role": "member",
                "title": ""
            }
        },
        {
            "available_actions": [

            ],
            "schedule_info": null,
            "class_name": "ECSTask",
            "created_at": "2023-08-03T12:26:02.584Z",
            "description": "Upsert 2 records",
            "id": "2102260348418970522",
            "parent_id": "2102260346147598836",
            "priority": 30,
            "require_idle_source": false,
            "require_idle_target": false,
            "source_object": null,
            "source_vault": null,
            "status": "completed",
            "target_object": {
                "id": "2102259236923982288",
                "vault_id": 2236,
                "dataset_id": "2102259236923982288",
                "dataset_full_name": "2102259236923982288",
                "dataset_documents_count": 203,
                "documents_count": 203,
                "dataset_description": "Test_rclient Variants",
                "full_path": "vsim-dev:Test_rclient:/Variants_set2-01/variants 2023-08-03 14:22:52",
                "parent_object_id": "2055856869311843627",
                "object_type": "dataset",
                "path": "/Variants_set2-01/variants 2023-08-03 14:22:52",
                "filename": "variants 2023-08-03 14:22:52",
                "is_deleted": false,
                "created_at": "2023-08-03T12:23:50.080Z",
                "updated_at": "2023-08-03T12:26:16.532Z",
                "last_accessed": "2023-08-03T12:29:21Z",
                "last_modified": "2023-08-03T12:26:16.809Z",
                "url": null,
                "vault_name": "Test_rclient"
            },
            "target_vault": {
                "id": 2236,
                "name": "Test_rclient",
                "provider": "SolveBio",
                "vault_type": "general",
                "full_path": "vsim-dev:Test_rclient",
                "is_deleted": false,
                "is_public": false,
                "created_at": "2023-05-18T23:36:53.859Z",
                "updated_at": "2023-05-18T23:37:24.048Z",
                "permissions": {
                    "read": true,
                    "write": true,
                    "admin": false
                },
                "url": "https://vsim-dev.api.edp.aws.quartz.bio/v2/vaults/2236"
            },
            "task_display_name": "Dataset Commit",
            "task_id": "2102260346964979212",
            "task_type": "datasets.DatasetCommit",
            "updated_at": "2023-08-03T12:26:16.835Z",
            "user": {
                "class_name": "User",
                "email": "Test.User@fakemail.com",
                "first_name": "Test",
                "full_name": "Test User",
                "id": 94,
                "is_active": true,
                "is_staff": false,
                "role": "member",
                "title": ""
            }
        },
        {
            "available_actions": [

            ],
            "schedule_info": null,
            "class_name": "ECSTask",
            "created_at": "2023-08-03T12:24:44.484Z",
            "description": "Add 203 records",
            "id": "2102259693262340731",
            "parent_id": "2102259255041470892",
            "priority": 30,
            "require_idle_source": false,
            "require_idle_target": false,
            "source_object": null,
            "source_vault": null,
            "status": "completed",
            "target_object": {
                "id": "2102259236923982288",
                "vault_id": 2236,
                "dataset_id": "2102259236923982288",
                "dataset_full_name": "2102259236923982288",
                "dataset_documents_count": 203,
                "documents_count": 203,
                "dataset_description": "Test_rclient Variants",
                "full_path": "vsim-dev:Test_rclient:/Variants_set2-01/variants 2023-08-03 14:22:52",
                "parent_object_id": "2055856869311843627",
                "object_type": "dataset",
                "path": "/Variants_set2-01/variants 2023-08-03 14:22:52",
                "filename": "variants 2023-08-03 14:22:52",
                "is_deleted": false,
                "created_at": "2023-08-03T12:23:50.080Z",
                "updated_at": "2023-08-03T12:26:16.532Z",
                "last_accessed": "2023-08-03T12:29:21Z",
                "last_modified": "2023-08-03T12:26:16.809Z",
                "url": null,
                "vault_name": "Test_rclient"
            },
            "target_vault": {
                "id": 2236,
                "name": "Test_rclient",
                "provider": "SolveBio",
                "vault_type": "general",
                "full_path": "vsim-dev:Test_rclient",
                "is_deleted": false,
                "is_public": false,
                "created_at": "2023-05-18T23:36:53.859Z",
                "updated_at": "2023-05-18T23:37:24.048Z",
                "permissions": {
                    "read": true,
                    "write": true,
                    "admin": false
                },
                "url": "https://vsim-dev.api.edp.aws.quartz.bio/v2/vaults/2236"
            },
            "task_display_name": "Dataset Commit",
            "task_id": "2102259690873766698",
            "task_type": "datasets.DatasetCommit",
            "updated_at": "2023-08-03T12:25:55.417Z",
            "user": {
                "class_name": "User",
                "email": "Test.User@fakemail.com",
                "first_name": "Test",
                "full_name": "Test User",
                "id": 94,
                "is_active": true,
                "is_staff": false,
                "role": "member",
                "title": ""
            }
        }
    ]
}
